# seed 1692210781
# arguments regular medium expert 2023
# SST2K version 2.7
# Test capture - trdsuccessful
# recorded by esr@snark.thyrsus.com on Wed Aug 16 14:33:01 2023
#
phasers
a
1657
torpedo 1 i8
torpedo 1 i7
capture
quit
